Design Route Status
                                               :      # nets :
   ------------------------------------------- : ----------- :
   # of logical nets.......................... :      204315 :
       # of nets not needing routing.......... :      149602 :
           # of internally routed nets........ :      129911 :
           # of nets with no loads............ :       19691 :
       # of routable nets..................... :       54713 :
           # of fully routed nets............. :       54713 :
       # of nets with routing errors.......... :           0 :
   ------------------------------------------- : ----------- :

